…
Log:{'name': 夜景 チーズとお肉のソラバル 梅田店 , 'address': 大阪府大阪市北区小松原町1-27 梅田エビスビル 9F , 'phone': 050-5595-3405 , 'lat': 34.70228264268257 , 'long': 135.50153635551814 }
Log:{'name': 活さば問屋 , 'address': 大阪府大阪市北区堂山町5-4 ABC観光ビル 1F , 'phone': 050-5596-4471 , 'lat': 34.70283704028684 , 'long': 135.50224960409074 }
Log:{'name': しゃかりき432" 堂山店 , 'address': 大阪府大阪市北区堂山町10-15 天神ビル 1F , 'phone': 050-5456-9194 , 'lat': 34.70337007924187 , 'long': 135.5045632762873 }…
```

こんな感じで1200件の店舗情報が取得できている。

```text
df_osaka
# A tibble: 1,200 x 6
   urls                                              name                                 address                                        phone         lat                long             
   <chr>                                             <chr>                                <chr>                                          <chr>         <chr>              <chr>            
 1 https://tabelog.com/osaka/A2701/A270101/27103352/ "夜景 チーズとお肉のソラバル 梅田店" 大阪府大阪市北区小松原町1-27 梅田エビスビル 9F 050-5595-3405 34.70228264268257  135.501536355518…
 2 https://tabelog.com/osaka/A2701/A270101/27090601/ "活さば問屋"                         大阪府大阪市北区堂山町5-4 ABC観光ビル 1F       050-5596-4471 34.70283704028684  135.502249604090…
 3 https://tabelog.com/osaka/A2701/A270101/27116951/ "しゃかりき432\" 堂山店"             大阪府大阪市北区堂山町10-15 天神ビル 1F        050-5456-9194 34.70337007924187  135.5045632762873
 4 https://tabelog.com/osaka/A2701/A270101/27116105/ "鉄板焼き 華粋"                      大阪府大阪市北区曽根崎新地1-5-31  JMビル B1F   080-2149-1779 34.69764613094936  135.497917425098…
 5 https://tabelog.com/osaka/A2701/A270101/27073634/ "北新地 湯木 新店"                   大阪府大阪市北区堂島1-5-39 マルタビル 1F       050-5869-6949 34.69616766207376  135.497007013224…
 6 https://tabelog.com/osaka/A2701/A270104/27115083/ "akala"                              大阪府大阪市中央区内淡路町2-3-17               050-5456-5607 34.68641842867681  135.513001133786…
 7 https://tabelog.com/osaka/A2701/A270103/27084786/ "輝楽家"                             大阪府大阪市北区天神橋1-11-13                  050-5571-8107 34.69405370101387  135.511735887323…
 8 https://tabelog.com/osaka/A2701/A270101/27073090/ "今井きしょう"                       大阪府大阪市北区梅田1-3-1 大阪駅前第1ビル  B1F 050-5596-5109 34.699063725204596 135.496091400370…
 9 https://tabelog.com/osaka/A2701/A270101/27007749/ "サントロペ"                         大阪府大阪市北区鶴野町4 コープ野村B棟 101      050-5868-0928 34.70930717432185  135.501834618436…
10 https://tabelog.com/osaka/A2701/A270202/27092954/ "THE WALL CABANA"                    大阪府大阪市中央区西心斎橋2-17-9 8F            06-6212-1730  34.670589851643655 135.4975398132911
# … with 1,190 more rows
```
…
